^C:\USERS\MAICO\DOCUMENTS\VISUAL STUDIO 2015\PROJECTS\SQLITE-CORKY\SQLITE-CORKY\STDAFX.CPP
C:\USERS\MAICO\DOCUMENTS\VISUAL STUDIO 2015\PROJECTS\SQLITE-CORKY\SQLITE-CORKY\DEBUG\SQLITE-CORKY.PCH
C:\USERS\MAICO\DOCUMENTS\VISUAL STUDIO 2015\PROJECTS\SQLITE-CORKY\SQLITE-CORKY\DEBUG\VC140.PDB
C:\USERS\MAICO\DOCUMENTS\VISUAL STUDIO 2015\PROJECTS\SQLITE-CORKY\SQLITE-CORKY\DEBUG\VC140.IDB
C:\USERS\MAICO\DOCUMENTS\VISUAL STUDIO 2015\PROJECTS\SQLITE-CORKY\SQLITE-CORKY\DEBUG\STDAFX.OBJ
^C:\USERS\MAICO\DOCUMENTS\VISUAL STUDIO 2015\PROJECTS\SQLITE-CORKY\SQLITE-CORKY\SQLITE-CORKY.CPP
C:\USERS\MAICO\DOCUMENTS\VISUAL STUDIO 2015\PROJECTS\SQLITE-CORKY\SQLITE-CORKY\DEBUG\VC140.PDB
C:\USERS\MAICO\DOCUMENTS\VISUAL STUDIO 2015\PROJECTS\SQLITE-CORKY\SQLITE-CORKY\DEBUG\VC140.IDB
C:\USERS\MAICO\DOCUMENTS\VISUAL STUDIO 2015\PROJECTS\SQLITE-CORKY\SQLITE-CORKY\DEBUG\SQLITE-CORKY.OBJ
^C:\USERS\MAICO\DOCUMENTS\VISUAL STUDIO 2015\PROJECTS\SQLITE-CORKY\SQLITE-CORKY\SQLITE3.C
C:\USERS\MAICO\DOCUMENTS\VISUAL STUDIO 2015\PROJECTS\SQLITE-CORKY\SQLITE-CORKY\DEBUG\VC140.PDB
C:\USERS\MAICO\DOCUMENTS\VISUAL STUDIO 2015\PROJECTS\SQLITE-CORKY\SQLITE-CORKY\DEBUG\VC140.IDB
C:\USERS\MAICO\DOCUMENTS\VISUAL STUDIO 2015\PROJECTS\SQLITE-CORKY\SQLITE-CORKY\DEBUG\SQLITE3.OBJ
^C:\USERS\MAICO\DOCUMENTS\VISUAL STUDIO 2015\PROJECTS\SQLITE-CORKY\SQLITE-CORKY\UNQLITE.C
C:\USERS\MAICO\DOCUMENTS\VISUAL STUDIO 2015\PROJECTS\SQLITE-CORKY\SQLITE-CORKY\DEBUG\VC140.PDB
C:\USERS\MAICO\DOCUMENTS\VISUAL STUDIO 2015\PROJECTS\SQLITE-CORKY\SQLITE-CORKY\DEBUG\VC140.IDB
C:\USERS\MAICO\DOCUMENTS\VISUAL STUDIO 2015\PROJECTS\SQLITE-CORKY\SQLITE-CORKY\DEBUG\UNQLITE.OBJ
^C:\USERS\MAICO\DOCUMENTS\VISUAL STUDIO 2015\PROJECTS\SQLITE-CORKY\SQLITE-CORKY\SHA256.C
C:\USERS\MAICO\DOCUMENTS\VISUAL STUDIO 2015\PROJECTS\SQLITE-CORKY\SQLITE-CORKY\DEBUG\VC140.PDB
^C:\USERS\MAICO\DOCUMENTS\VISUAL STUDIO 2015\PROJECTS\SQLITE-CORKY\SQLITE-CORKY\SHA256.C|C:\USERS\MAICO\DOCUMENTS\VISUAL STUDIO 2015\PROJECTS\SQLITE-CORKY\SQLITE-CORKY\SQLITE3.C
C:\USERS\MAICO\DOCUMENTS\VISUAL STUDIO 2015\PROJECTS\SQLITE-CORKY\SQLITE-CORKY\DEBUG\VC140.PDB
C:\USERS\MAICO\DOCUMENTS\VISUAL STUDIO 2015\PROJECTS\SQLITE-CORKY\SQLITE-CORKY\DEBUG\VC140.IDB
C:\USERS\MAICO\DOCUMENTS\VISUAL STUDIO 2015\PROJECTS\SQLITE-CORKY\SQLITE-CORKY\DEBUG\SHA256.OBJ
C:\USERS\MAICO\DOCUMENTS\VISUAL STUDIO 2015\PROJECTS\SQLITE-CORKY\SQLITE-CORKY\DEBUG\SQLITE3.OBJ
